Algoritmos/bcd_binario/Core/TB/control_bin_TB.vcd
$date
	Thu Jul 16 06:18:08 2026
$end
$version
	Icarus Verilog
$end
$timescale
	1ps
$end
$scope module control_bin_TB $end
$var wire 1 ! sh $end
$var wire 1 " load $end
$var wire 1 # ld_acc $end
$var wire 1 $ done $end
$var reg 1 % clk $end
$var reg 1 & init $end
$var reg 1 ' rst $end
$var reg 1 ( z $end
$scope module uut $end
$var wire 1 % clk $end
$var wire 1 & init $end
$var wire 1 ' rst $end
$var wire 1 ( z $end
$var parameter 3 ) ACC $end
$var parameter 3 * CHECK1 $end
$var parameter 3 + CHECK2 $end
$var parameter 3 , END_ST $end
$var parameter 3 - SHIFT $end
$var parameter 3 . START $end
$var reg 1 $ done $end
$var reg 1 # ld_acc $end
$var reg 1 " load $end
$var reg 1 ! sh $end
$var reg 3 / state [2:0] $end
$upscope $end
$upscope $end
$enddefinitions $end
$comment Show the parameter values. $end
$dumpall
b0 .
b1 -
b101 ,
b11 +
b10 *
b100 )
$end
#0
$dumpvars
b0 /
0(
1'
0&
0%
0$
0#
0"
0!
$end
#10000
1%
#20000
0%
1&
0'
#30000
b1 /
1"
1%
#31000
0&
#40000
0%
#50000
b10 /
0"
1!
1%
#60000
0%
#70000
b11 /
0!
1%
#80000
0%
#90000
b100 /
1#
1%
#100000
0%
#110000
b1 /
0#
1%
#120000
0%
#130000
b10 /
1!
1%
#131000
1(
#140000
0%
#150000
b101 /
0!
1%
