Algoritmos/bcd_binario/Core/TB/peripheral_bcd_to_bin_TB.vcd
$date
	Thu Jul 16 06:20:56 2026
$end
$version
	Icarus Verilog
$end
$timescale
	1ps
$end
$scope module peripheral_bcd_to_bin_TB $end
$var wire 32 ! d_out [31:0] $end
$var parameter 32 " PERIOD $end
$var reg 5 # addr [4:0] $end
$var reg 1 $ clk $end
$var reg 1 % cs $end
$var reg 16 & d_in [15:0] $end
$var reg 1 ' rd $end
$var reg 1 ( reset $end
$var reg 1 ) wr $end
$scope module uut $end
$var wire 5 * addr [4:0] $end
$var wire 1 $ clk $end
$var wire 1 % cs $end
$var wire 16 + d_in [15:0] $end
$var wire 1 ' rd $end
$var wire 1 ( reset $end
$var wire 1 ) wr $end
$var wire 8 , result [7:0] $end
$var wire 1 - done $end
$var reg 32 . d_out [31:0] $end
$var reg 8 / in_data [7:0] $end
$var reg 1 0 init $end
$var reg 5 1 s [4:0] $end
$scope module uut $end
$var wire 1 $ clk $end
$var wire 8 2 in_data [7:0] $end
$var wire 1 0 init $end
$var wire 1 ( rst $end
$var wire 1 3 w_z $end
$var wire 4 4 w_sub_low [3:0] $end
$var wire 4 5 w_sub_high [3:0] $end
$var wire 1 6 w_sh $end
$var wire 16 7 w_r0 [15:0] $end
$var wire 1 8 w_load $end
$var wire 1 9 w_ld_acc $end
$var wire 8 : result [7:0] $end
$var wire 1 - done $end
$scope module comp_high $end
$var wire 4 ; nibble_in [3:0] $end
$var wire 4 < nibble_out [3:0] $end
$var reg 4 = tmp [3:0] $end
$upscope $end
$scope module comp_low $end
$var wire 4 > nibble_in [3:0] $end
$var wire 4 ? nibble_out [3:0] $end
$var reg 4 @ tmp [3:0] $end
$upscope $end
$scope module control0 $end
$var wire 1 $ clk $end
$var wire 1 0 init $end
$var wire 1 ( rst $end
$var wire 1 3 z $end
$var parameter 3 A ACC $end
$var parameter 3 B CHECK1 $end
$var parameter 3 C CHECK2 $end
$var parameter 3 D END_ST $end
$var parameter 3 E SHIFT $end
$var parameter 3 F START $end
$var reg 1 - done $end
$var reg 1 9 ld_acc $end
$var reg 1 8 load $end
$var reg 1 6 sh $end
$var reg 3 G state [2:0] $end
$upscope $end
$scope module counter0 $end
$var wire 1 $ clk $end
$var wire 1 6 dec $end
$var wire 1 8 load $end
$var wire 1 ( rst $end
$var wire 1 3 z $end
$var reg 4 H count [3:0] $end
$upscope $end
$scope module rsr0 $end
$var wire 1 $ clk $end
$var wire 8 I in_data [7:0] $end
$var wire 1 9 ld_acc $end
$var wire 1 8 load $end
$var wire 1 ( rst $end
$var wire 1 6 shift $end
$var wire 4 J sub_high [3:0] $end
$var wire 4 K sub_low [3:0] $end
$var wire 8 L result [7:0] $end
$var reg 16 M r0 [15:0] $end
$upscope $end
$upscope $end
$upscope $end
$upscope $end
$enddefinitions $end
$comment Show the parameter values. $end
$dumpall
b0 F
b1 E
b101 D
b11 C
b10 B
b100 A
b10100 "
$end
#0
$dumpvars
bx M
bx L
bx K
bx J
bx I
bx H
b0 G
bx @
bx ?
bx >
bx =
bx <
bx ;
bx :
09
08
bx 7
06
bx 5
bx 4
x3
bx 2
b0 1
x0
bx /
b0 .
0-
bx ,
b0 +
b0 *
0)
0(
0'
b0 &
0%
0$
b0 #
b0 !
$end
#10000
1$
#20000
1(
0$
#30000
1$
#40000
0(
0$
#50000
1$
#60000
0$
#70000
1$
#80000
0$
#90000
1$
#100000
0$
#110000
1$
#120000
b1000101 /
b1000101 2
b1000101 I
b1 1
0$
b1000101 &
b1000101 +
b100 #
b100 *
1)
1%
#130000
1$
#140000
b0 1
0$
0)
0%
#150000
1$
#160000
0$
#170000
1$
#180000
10
b100 1
0$
b1 &
b1 +
b1100 #
b1100 *
1)
1%
#190000
b1 G
18
1$
#200000
b101 4
b101 ?
b101 K
b101 @
b100 5
b100 <
b100 J
b100 =
b0 ,
b0 :
b0 L
b101 >
b100 ;
03
b100010100000000 7
b100010100000000 M
b1000 H
00
0$
b0 &
b0 +
#210000
b10 G
08
16
1$
#220000
b10 4
b10 ?
b10 K
b10 @
b10 5
b10 <
b10 J
b10 =
b10000000 ,
b10000000 :
b10000000 L
b10 >
b10 ;
b111 H
b10001010000000 7
b10001010000000 M
b0 1
0$
0)
0%
#230000
b11 G
06
1$
#240000
0$
#250000
b100 G
19
1$
#260000
0$
#270000
b1 G
09
1$
#280000
0$
#290000
b10 G
16
1$
#300000
b1 4
b1 ?
b1 K
b1 @
b1 5
b1 <
b1 J
b1 =
b1000000 ,
b1000000 :
b1000000 L
b1 >
b1 ;
b110 H
b1000101000000 7
b1000101000000 M
0$
#310000
b11 G
06
1$
#320000
0$
#330000
b100 G
19
1$
#340000
0$
#350000
b1 G
09
1$
#360000
0$
#370000
b10 G
16
1$
#380000
b101 4
b101 ?
b101 K
b101 @
b0 5
b0 <
b0 J
b0 =
b10100000 ,
b10100000 :
b10100000 L
b1000 >
b0 ;
b101 H
b100010100000 7
b100010100000 M
0$
#390000
b11 G
06
1$
#400000
0$
#410000
b100 G
19
1$
#420000
b101 >
b10110100000 7
b10110100000 M
0$
#430000
b1 G
09
1$
#440000
0$
#450000
b10 G
16
1$
#460000
b10 4
b10 ?
b10 K
b10 @
b11010000 ,
b11010000 :
b11010000 L
b10 >
b100 H
b1011010000 7
b1011010000 M
0$
#470000
b11 G
06
1$
#480000
0$
#490000
b100 G
19
1$
#500000
0$
#510000
b1 G
09
1$
#520000
0$
#530000
b10 G
16
1$
#540000
b1 4
b1 ?
b1 K
b1 @
b1101000 ,
b1101000 :
b1101000 L
b1 >
b11 H
b101101000 7
b101101000 M
0$
#550000
b11 G
06
1$
#560000
0$
#570000
b100 G
19
1$
#580000
0$
#590000
b1 G
09
1$
#600000
0$
#610000
b10 G
16
1$
#620000
b0 4
b0 ?
b0 K
b0 @
b10110100 ,
b10110100 :
b10110100 L
b0 >
b10 H
b10110100 7
b10110100 M
0$
#630000
b11 G
06
1$
#640000
0$
#650000
b100 G
19
1$
#660000
0$
#670000
b1 G
09
1$
#680000
0$
#690000
b10 G
16
1$
#700000
b1011010 ,
b1011010 :
b1011010 L
b1 H
b1011010 7
b1011010 M
0$
#710000
b11 G
06
1$
#720000
0$
#730000
b100 G
19
1$
#740000
0$
#750000
b1 G
09
1$
#760000
0$
#770000
b10 G
16
1$
#780000
13
b101101 ,
b101101 :
b101101 L
b0 H
b101101 7
b101101 M
0$
#790000
b101 G
06
1$
#800000
0$
#810000
1-
1$
#820000
b1 !
b1 .
b10000 1
0$
b10100 #
b10100 *
1'
1%
#830000
1$
#840000
b0 !
b0 .
b0 1
0$
0'
0%
#850000
1$
#860000
b101101 !
b101101 .
b1000 1
0$
b10000 #
b10000 *
1'
1%
#870000
1$
#880000
b0 !
b0 .
b0 1
0$
0'
0%
#890000
1$
#900000
0$
#910000
1$
#920000
0$
#930000
1$
#940000
0$
#950000
1$
#960000
0$
#970000
1$
#980000
b10011001 /
b10011001 2
b10011001 I
b1 1
0$
b10011001 &
b10011001 +
b100 #
b100 *
1)
1%
#990000
1$
#1000000
b0 1
0$
0)
0%
#1010000
1$
#1020000
0$
#1030000
1$
#1040000
10
b100 1
0$
b1 &
b1 +
b1100 #
b1100 *
1)
1%
#1050000
b1 G
18
1$
#1060000
b110 4
b110 ?
b110 K
b110 @
b110 5
b110 <
b110 J
b110 =
03
b0 ,
b0 :
b0 L
b1001 >
b1001 ;
b1000 H
b1001100100000000 7
b1001100100000000 M
00
0$
b0 &
b0 +
#1070000
b10 G
08
16
0-
1$
#1080000
b1001 4
b1001 ?
b1001 K
b1001 @
b100 5
b100 <
b100 J
b100 =
b10000000 ,
b10000000 :
b10000000 L
b1100 >
b100 ;
b100110010000000 7
b100110010000000 M
b111 H
b0 1
0$
0)
0%
#1090000
b11 G
06
1$
#1100000
0$
#1110000
b100 G
19
1$
#1120000
b110 4
b110 ?
b110 K
b110 @
b1001 >
b100100110000000 7
b100100110000000 M
0$
#1130000
b1 G
09
1$
#1140000
0$
#1150000
b10 G
16
1$
#1160000
b100 4
b100 ?
b100 K
b100 @
b10 5
b10 <
b10 J
b10 =
b11000000 ,
b11000000 :
b11000000 L
b100 >
b10 ;
b10010011000000 7
b10010011000000 M
b110 H
0$
#1170000
b11 G
06
1$
#1180000
0$
#1190000
b100 G
19
1$
#1200000
0$
#1210000
b1 G
09
1$
#1220000
0$
#1230000
b10 G
16
1$
#1240000
b10 4
b10 ?
b10 K
b10 @
b1 5
b1 <
b1 J
b1 =
b1100000 ,
b1100000 :
b1100000 L
b10 >
b1 ;
b1001001100000 7
b1001001100000 M
b101 H
0$
#1250000
b11 G
06
1$
#1260000
0$
#1270000
b100 G
19
1$
#1280000
0$
#1290000
b1 G
09
1$
#1300000
0$
#1310000
b10 G
16
1$
#1320000
b110 4
b110 ?
b110 K
b110 @
b0 5
b0 <
b0 J
b0 =
b110000 ,
b110000 :
b110000 L
b1001 >
b0 ;
b100100110000 7
b100100110000 M
b100 H
0$
#1330000
b11 G
06
1$
#1340000
0$
#1350000
b100 G
19
1$
#1360000
b110 >
b11000110000 7
b11000110000 M
0$
#1370000
b1 G
09
1$
#1380000
0$
#1390000
b10 G
16
1$
#1400000
b11 4
b11 ?
b11 K
b11 @
b11000 ,
b11000 :
b11000 L
b11 >
b1100011000 7
b1100011000 M
b11 H
0$
#1410000
b11 G
06
1$
#1420000
0$
#1430000
b100 G
19
1$
#1440000
0$
#1450000
b1 G
09
1$
#1460000
0$
#1470000
b10 G
16
1$
#1480000
b1 4
b1 ?
b1 K
b1 @
b10001100 ,
b10001100 :
b10001100 L
b1 >
b110001100 7
b110001100 M
b10 H
0$
#1490000
b11 G
06
1$
#1500000
0$
#1510000
b100 G
19
1$
#1520000
0$
#1530000
b1 G
09
1$
#1540000
0$
#1550000
b10 G
16
1$
#1560000
b0 4
b0 ?
b0 K
b0 @
b11000110 ,
b11000110 :
b11000110 L
b0 >
b11000110 7
b11000110 M
b1 H
0$
#1570000
b11 G
06
1$
#1580000
0$
#1590000
b100 G
19
1$
#1600000
0$
#1610000
b1 G
09
1$
#1620000
0$
#1630000
b10 G
16
1$
#1640000
b1100011 ,
b1100011 :
b1100011 L
13
b1100011 7
b1100011 M
b0 H
0$
#1650000
b101 G
06
1$
#1660000
0$
#1670000
1-
1$
#1680000
b1100011 !
b1100011 .
b1000 1
0$
b10000 #
b10000 *
1'
1%
#1690000
1$
#1700000
b0 !
b0 .
b0 1
0$
0'
0%
