Algoritmos/binario_bcd/Core/TB/control_bcd_TB.vcd
$date
	Thu Jul 16 05:32:55 2026
$end
$version
	Icarus Verilog
$end
$timescale
	1ps
$end
$scope module control_bcd_TB $end
$var wire 1 ! sh $end
$var wire 1 " load $end
$var wire 1 # ld_acc $end
$var wire 1 $ done $end
$var reg 1 % clk $end
$var reg 1 & init $end
$var reg 1 ' rst $end
$var reg 1 ( z $end
$scope module uut $end
$var wire 1 % clk $end
$var wire 1 & init $end
$var wire 1 ' rst $end
$var wire 1 ( z $end
$var parameter 3 ) ACC $end
$var parameter 3 * CHECK1 $end
$var parameter 3 + CHECK2 $end
$var parameter 3 , END_ST $end
$var parameter 3 - SHIFT $end
$var parameter 3 . START $end
$var reg 1 $ done $end
$var reg 1 # ld_acc $end
$var reg 1 " load $end
$var reg 1 ! sh $end
$var reg 3 / state [2:0] $end
$var reg 5 0 wait_cnt [4:0] $end
$upscope $end
$upscope $end
$enddefinitions $end
$comment Show the parameter values. $end
$dumpall
b0 .
b1 -
b101 ,
b11 +
b10 *
b100 )
$end
#0
$dumpvars
b0 0
b0 /
0(
1'
0&
0%
0$
0#
0"
0!
$end
#10000
1%
#20000
0%
1&
0'
#30000
b1 /
1"
1%
#40000
0%
0&
#50000
b10 /
0"
1!
1%
#60000
0%
#70000
b11 /
0!
1%
#80000
0%
#90000
b100 /
1#
1%
#100000
0%
#110000
b1 /
0#
1%
#120000
0%
#130000
b10 /
1!
1%
#140000
0%
#150000
b11 /
0!
1%
#160000
0%
#170000
b100 /
1#
1%
#180000
0%
#190000
b1 /
0#
1%
#200000
0%
#210000
b10 /
1!
1%
#220000
0%
#230000
b11 /
0!
1%
#240000
0%
#250000
b100 /
1#
1%
#260000
0%
#270000
b1 /
0#
1%
#280000
0%
#290000
b10 /
1!
1%
#300000
0%
#310000
b11 /
0!
1%
#320000
0%
#330000
b100 /
1#
1%
#340000
0%
#350000
b1 /
0#
1%
#360000
0%
#370000
b10 /
1!
1%
#380000
0%
#390000
b11 /
0!
1%
#400000
0%
#410000
b100 /
1#
1%
#420000
0%
#430000
b1 /
0#
1%
#440000
0%
#450000
b101 /
1!
1(
1%
#460000
0%
#470000
b1 0
0!
1$
1%
#480000
0%
#490000
b10 0
1%
