Algoritmos/Binario-BCD/Archivos Verilog/TB/counter_bcd_TB.vcd
$date
	Thu Jul 16 05:23:03 2026
$end
$version
	Icarus Verilog
$end
$timescale
	1ps
$end
$scope module counter_bcd_TB $end
$var wire 1 ! z $end
$var wire 4 " count [3:0] $end
$var reg 1 # clk $end
$var reg 1 $ dec $end
$var reg 1 % load $end
$var reg 1 & rst $end
$scope module uut $end
$var wire 1 # clk $end
$var wire 1 $ dec $end
$var wire 1 % load $end
$var wire 1 & rst $end
$var wire 1 ! z $end
$var reg 4 ' count [3:0] $end
$upscope $end
$upscope $end
$enddefinitions $end
$comment Show the parameter values. $end
$dumpall
$end
#0
$dumpvars
b1000 '
1&
0%
0$
0#
b1000 "
0!
$end
#10000
1#
#20000
0#
1%
0&
#30000
1#
#40000
b111 "
b111 '
0#
1$
0%
#50000
1#
#60000
b110 "
b110 '
0#
#70000
1#
#80000
b101 "
b101 '
0#
#90000
1#
#100000
b100 "
b100 '
0#
#110000
1#
#120000
b11 "
b11 '
0#
#130000
1#
#140000
b10 "
b10 '
0#
#150000
1#
#160000
b1 "
b1 '
0#
#170000
1#
#180000
1!
b0 "
b0 '
0$
0#
