Algoritmos/Binario-BCD/TB/peripheral_bin_to_bcd_TB.vcd
$date
	Thu Jul 16 06:02:37 2026
$end
$version
	Icarus Verilog
$end
$timescale
	1ps
$end
$scope module peripheral_bin_to_bcd_TB $end
$var wire 32 ! d_out [31:0] $end
$var parameter 32 " PERIOD $end
$var reg 5 # addr [4:0] $end
$var reg 1 $ clk $end
$var reg 1 % cs $end
$var reg 16 & d_in [15:0] $end
$var reg 1 ' rd $end
$var reg 1 ( reset $end
$var reg 1 ) wr $end
$scope module uut $end
$var wire 5 * addr [4:0] $end
$var wire 1 $ clk $end
$var wire 1 % cs $end
$var wire 16 + d_in [15:0] $end
$var wire 1 ' rd $end
$var wire 1 ( reset $end
$var wire 1 ) wr $end
$var wire 8 , result [7:0] $end
$var wire 1 - done $end
$var reg 32 . d_out [31:0] $end
$var reg 8 / in_data [7:0] $end
$var reg 1 0 init $end
$var reg 5 1 s [4:0] $end
$scope module uut $end
$var wire 1 $ clk $end
$var wire 8 2 in_data [7:0] $end
$var wire 1 0 init $end
$var wire 1 ( rst $end
$var wire 1 3 w_z $end
$var wire 1 4 w_sh $end
$var wire 16 5 w_r0 [15:0] $end
$var wire 1 6 w_load $end
$var wire 1 7 w_ld_acc $end
$var wire 4 8 w_add_low [3:0] $end
$var wire 4 9 w_add_high [3:0] $end
$var wire 8 : result [7:0] $end
$var wire 1 - done $end
$scope module comp_high $end
$var wire 4 ; nibble_in [3:0] $end
$var wire 4 < nibble_out [3:0] $end
$var reg 4 = tmp [3:0] $end
$upscope $end
$scope module comp_low $end
$var wire 4 > nibble_in [3:0] $end
$var wire 4 ? nibble_out [3:0] $end
$var reg 4 @ tmp [3:0] $end
$upscope $end
$scope module control0 $end
$var wire 1 $ clk $end
$var wire 1 0 init $end
$var wire 1 ( rst $end
$var wire 1 3 z $end
$var parameter 3 A ACC $end
$var parameter 3 B CHECK1 $end
$var parameter 3 C CHECK2 $end
$var parameter 3 D END_ST $end
$var parameter 3 E SHIFT $end
$var parameter 3 F START $end
$var reg 1 - done $end
$var reg 1 7 ld_acc $end
$var reg 1 6 load $end
$var reg 1 4 sh $end
$var reg 3 G state [2:0] $end
$var reg 5 H wait_cnt [4:0] $end
$upscope $end
$scope module counter0 $end
$var wire 1 $ clk $end
$var wire 1 4 dec $end
$var wire 1 6 load $end
$var wire 1 ( rst $end
$var wire 1 3 z $end
$var reg 4 I count [3:0] $end
$upscope $end
$scope module lsr0 $end
$var wire 4 J add_high [3:0] $end
$var wire 4 K add_low [3:0] $end
$var wire 1 $ clk $end
$var wire 8 L in_data [7:0] $end
$var wire 1 7 ld_acc $end
$var wire 1 6 load $end
$var wire 1 ( rst $end
$var wire 1 4 shift $end
$var wire 8 M result [7:0] $end
$var reg 16 N r0 [15:0] $end
$upscope $end
$upscope $end
$upscope $end
$upscope $end
$enddefinitions $end
$comment Show the parameter values. $end
$dumpall
b0 F
b1 E
b101 D
b11 C
b10 B
b100 A
b10100 "
$end
#0
$dumpvars
bx N
bx M
bx L
bx K
bx J
bx I
b0 H
b0 G
bx @
bx ?
bx >
bx =
bx <
bx ;
bx :
bx 9
bx 8
07
06
bx 5
04
x3
bx 2
b0 1
x0
bx /
b0 .
0-
bx ,
b0 +
b0 *
0)
0(
0'
b0 &
0%
0$
b0 #
b0 !
$end
#10000
16
1$
#20000
b0 8
b0 ?
b0 K
b0 @
b0 9
b0 <
b0 J
b0 =
03
b0 ,
b0 :
b0 M
b0 >
b0 ;
b1000 I
b0xxxxxxxx 5
b0xxxxxxxx N
1(
0$
#30000
1$
#40000
0(
0$
#50000
1$
#60000
0$
#70000
1$
#80000
0$
#90000
1$
#100000
0$
#110000
1$
#120000
b101101 5
b101101 N
b101101 /
b101101 2
b101101 L
b1 1
0$
b101101 &
b101101 +
b100 #
b100 *
1)
1%
#130000
1$
#140000
b0 1
0$
0)
0%
#150000
1$
#160000
0$
#170000
1$
#180000
10
b100 1
0$
b1 &
b1 +
b1100 #
b1100 *
1)
1%
#190000
b1 G
1$
#200000
00
0$
b0 &
b0 +
#210000
b10 G
06
14
1$
#220000
b111 I
b1011010 5
b1011010 N
b0 1
0$
0)
0%
#230000
b11 G
04
1$
#240000
0$
#250000
b100 G
17
1$
#260000
0$
#270000
b1 G
07
1$
#280000
0$
#290000
b10 G
14
1$
#300000
b110 I
b10110100 5
b10110100 N
0$
#310000
b11 G
04
1$
#320000
0$
#330000
b100 G
17
1$
#340000
0$
#350000
b1 G
07
1$
#360000
0$
#370000
b10 G
14
1$
#380000
b1 8
b1 ?
b1 K
b1 @
b1 ,
b1 :
b1 M
b1 >
b101 I
b101101000 5
b101101000 N
0$
#390000
b11 G
04
1$
#400000
0$
#410000
b100 G
17
1$
#420000
0$
#430000
b1 G
07
1$
#440000
0$
#450000
b10 G
14
1$
#460000
b10 8
b10 ?
b10 K
b10 @
b10 ,
b10 :
b10 M
b10 >
b100 I
b1011010000 5
b1011010000 N
0$
#470000
b11 G
04
1$
#480000
0$
#490000
b100 G
17
1$
#500000
0$
#510000
b1 G
07
1$
#520000
0$
#530000
b10 G
14
1$
#540000
b1000 8
b1000 ?
b1000 K
b1000 @
b101 ,
b101 :
b101 M
b101 >
b11 I
b10110100000 5
b10110100000 N
0$
#550000
b11 G
04
1$
#560000
0$
#570000
b100 G
17
1$
#580000
b1011 8
b1011 ?
b1011 K
b1011 @
b1000 ,
b1000 :
b1000 M
b1000 >
b100010100000 5
b100010100000 N
0$
#590000
b1 G
07
1$
#600000
0$
#610000
b10 G
14
1$
#620000
b1 8
b1 ?
b1 K
b1 @
b1 9
b1 <
b1 J
b1 =
b10001 ,
b10001 :
b10001 M
b1 >
b1 ;
b10 I
b1000101000000 5
b1000101000000 N
0$
#630000
b11 G
04
1$
#640000
0$
#650000
b100 G
17
1$
#660000
0$
#670000
b1 G
07
1$
#680000
0$
#690000
b10 G
14
1$
#700000
b10 8
b10 ?
b10 K
b10 @
b10 9
b10 <
b10 J
b10 =
b100010 ,
b100010 :
b100010 M
b10 >
b10 ;
b1 I
b10001010000000 5
b10001010000000 N
0$
#710000
b11 G
04
1$
#720000
0$
#730000
b100 G
17
1$
#740000
0$
#750000
b1 G
07
1$
#760000
0$
#770000
b10 G
14
1$
#780000
b1000 8
b1000 ?
b1000 K
b1000 @
b100 9
b100 <
b100 J
b100 =
13
b1000101 ,
b1000101 :
b1000101 M
b101 >
b100 ;
b0 I
b100010100000000 5
b100010100000000 N
0$
#790000
b101 G
04
1$
#800000
0$
#810000
b1 H
1-
1$
#820000
b1 !
b1 .
b10000 1
0$
b10100 #
b10100 *
1'
1%
#830000
b10 H
1$
#840000
b0 !
b0 .
b0 1
0$
0'
0%
#850000
b11 H
1$
#860000
b1000101 !
b1000101 .
b1000 1
0$
b10000 #
b10000 *
1'
1%
#870000
b100 H
1$
#880000
b0 !
b0 .
b0 1
0$
0'
0%
#890000
b101 H
1$
#900000
0$
#910000
b110 H
1$
#920000
0$
#930000
b111 H
1$
#940000
0$
#950000
b1000 H
1$
#960000
0$
#970000
b1001 H
1$
#980000
b1001110 /
b1001110 2
b1001110 L
b1 1
0$
b1001110 &
b1001110 +
b100 #
b100 *
1)
1%
#990000
b1010 H
1$
#1000000
b0 1
0$
0)
0%
#1010000
b1011 H
1$
#1020000
0$
#1030000
b0 G
b1100 H
1$
#1040000
10
b100 1
0$
b1 &
b1 +
b1100 #
b1100 *
1)
1%
#1050000
b1 G
b0 H
16
0-
1$
#1060000
b0 8
b0 ?
b0 K
b0 @
b0 9
b0 <
b0 J
b0 =
03
b0 ,
b0 :
b0 M
b0 >
b0 ;
b1000 I
b1001110 5
b1001110 N
00
0$
b0 &
b0 +
#1070000
b10 G
06
14
1$
#1080000
b10011100 5
b10011100 N
b111 I
b0 1
0$
0)
0%
#1090000
b11 G
04
1$
#1100000
0$
#1110000
b100 G
17
1$
#1120000
0$
#1130000
b1 G
07
1$
#1140000
0$
#1150000
b10 G
14
1$
#1160000
b1 8
b1 ?
b1 K
b1 @
b1 ,
b1 :
b1 M
b1 >
b100111000 5
b100111000 N
b110 I
0$
#1170000
b11 G
04
1$
#1180000
0$
#1190000
b100 G
17
1$
#1200000
0$
#1210000
b1 G
07
1$
#1220000
0$
#1230000
b10 G
14
1$
#1240000
b10 8
b10 ?
b10 K
b10 @
b10 ,
b10 :
b10 M
b10 >
b1001110000 5
b1001110000 N
b101 I
0$
#1250000
b11 G
04
1$
#1260000
0$
#1270000
b100 G
17
1$
#1280000
0$
#1290000
b1 G
07
1$
#1300000
0$
#1310000
b10 G
14
1$
#1320000
b100 8
b100 ?
b100 K
b100 @
b100 ,
b100 :
b100 M
b100 >
b10011100000 5
b10011100000 N
b100 I
0$
#1330000
b11 G
04
1$
#1340000
0$
#1350000
b100 G
17
1$
#1360000
0$
#1370000
b1 G
07
1$
#1380000
0$
#1390000
b10 G
14
1$
#1400000
b1100 8
b1100 ?
b1100 K
b1100 @
b1001 ,
b1001 :
b1001 M
b1001 >
b100111000000 5
b100111000000 N
b11 I
0$
#1410000
b11 G
04
1$
#1420000
0$
#1430000
b100 G
17
1$
#1440000
b1111 8
b1111 ?
b1111 K
b1111 @
b1100 ,
b1100 :
b1100 M
b1100 >
b110011000000 5
b110011000000 N
0$
#1450000
b1 G
07
1$
#1460000
0$
#1470000
b10 G
14
1$
#1480000
b1100 8
b1100 ?
b1100 K
b1100 @
b1 9
b1 <
b1 J
b1 =
b11001 ,
b11001 :
b11001 M
b1001 >
b1 ;
b1100110000000 5
b1100110000000 N
b10 I
0$
#1490000
b11 G
04
1$
#1500000
0$
#1510000
b100 G
17
1$
#1520000
b1111 8
b1111 ?
b1111 K
b1111 @
b11100 ,
b11100 :
b11100 M
b1100 >
b1110010000000 5
b1110010000000 N
0$
#1530000
b1 G
07
1$
#1540000
0$
#1550000
b10 G
14
1$
#1560000
b1100 8
b1100 ?
b1100 K
b1100 @
b11 9
b11 <
b11 J
b11 =
b111001 ,
b111001 :
b111001 M
b1001 >
b11 ;
b11100100000000 5
b11100100000000 N
b1 I
0$
#1570000
b11 G
04
1$
#1580000
0$
#1590000
b100 G
17
1$
#1600000
b1111 8
b1111 ?
b1111 K
b1111 @
b111100 ,
b111100 :
b111100 M
b1100 >
b11110000000000 5
b11110000000000 N
0$
#1610000
b1 G
07
1$
#1620000
0$
#1630000
b10 G
14
1$
#1640000
b1011 8
b1011 ?
b1011 K
b1011 @
b1010 9
b1010 <
b1010 J
b1010 =
b1111000 ,
b1111000 :
b1111000 M
b1000 >
b111 ;
13
b111100000000000 5
b111100000000000 N
b0 I
0$
#1650000
b101 G
04
1$
#1660000
0$
#1670000
b1 H
1-
1$
#1680000
b1111000 !
b1111000 .
b1000 1
0$
b10000 #
b10000 *
1'
1%
#1690000
b10 H
1$
#1700000
b0 !
b0 .
b0 1
0$
0'
0%
#1710000
b11 H
1$
#1720000
0$
#1730000
b100 H
1$
#1740000
0$
#1750000
b101 H
1$
#1760000
0$
#1770000
b110 H
1$
#1780000
0$
#1790000
b111 H
1$
#1800000
0$
#1810000
b1000 H
1$
#1820000
0$
#1830000
b1001 H
1$
#1840000
0$
#1850000
b1010 H
1$
#1860000
0$
#1870000
b1011 H
1$
#1880000
0$
#1890000
b0 G
b1100 H
1$
